Final Project - NBA 2019/2020 Season Analsys
…
Back to Table of Contents

  Test 5

H0: mean of free throw pct of front court players = mean of free throw pct of back court players

H1: mean of free throw pct of front court players < mean of free throw pct of back court players

nba_mod %>%
  select(Court_Groups,FTA,FT,G) %>%
  filter(G>20) %>%
  arrange(desc(Court_Groups)) 

## # A tibble: 316 x 4
##    Court_Groups   FTA    FT     G
##    <fct>        <dbl> <dbl> <dbl>
##  1 Front_Court    5.2   3      57
##  2 Front_Court    1.7   1.4    62
##  3 Front_Court    1.2   0.7    54
##  4 Front_Court    2.2   1.7    33
##  5 Front_Court    1.9   1.2    49
##  6 Front_Court    0.8   0.7    44
##  7 Front_Court    1.4   1.1    58
##  8 Front_Court    1.8   1.4    40
##  9 Front_Court    0.5   0.4    21
## 10 Front_Court    1     0.9    52
## # ... with 306 more rows
…
